$date
	Mon Nov 28 17:29:10 2016
$end
$version
	Icarus Verilog
$end
$timescale
	1ps
$end
$scope module fifo_tb $end
$var wire 6 ! writeDataCount [5:0] $end
$var wire 9 " readDataOut [8:0] $end
$var wire 6 # readDataCount [5:0] $end
$var wire 1 $ full $end
$var wire 1 % empty $end
$var reg 1 & readClock $end
$var reg 1 ' readEnable $end
$var reg 1 ( reset $end
$var reg 1 ) writeClock $end
$var reg 9 * writeDataIn [8:0] $end
$var reg 1 + writeEnable $end
$var integer 32 , i [31:0] $end
$scope module _FIFO $end
$var wire 1 % empty $end
$var wire 1 $ full $end
$var wire 1 & readClock $end
$var wire 6 - readDataCount [5:0] $end
$var wire 9 . readDataOut [8:0] $end
$var wire 1 ' readEnable $end
$var wire 1 ( reset $end
$var wire 1 ) writeClock $end
$var wire 6 / writeDataCount [5:0] $end
$var wire 9 0 writeDataIn [8:0] $end
$var wire 1 + writeEnable $end
$var wire 6 1 iWriteDataCount [5:0] $end
$var wire 6 2 iReadDataCount [5:0] $end
$var wire 1 3 iFull $end
$var wire 1 4 iEmpty $end
$var reg 6 5 iGrayReadPointer [5:0] $end
$var reg 6 6 iGrayReadPointer1 [5:0] $end
$var reg 6 7 iGrayReadPointer2 [5:0] $end
$var reg 6 8 iGrayWritePointer [5:0] $end
$var reg 6 9 iGrayWritePointer1 [5:0] $end
$var reg 6 : iGrayWritePointer2 [5:0] $end
$var reg 6 ; iGrayWritePointer3 [5:0] $end
$var reg 9 < iReadDataOut [8:0] $end
$var reg 6 = iReadPointer [5:0] $end
$var reg 6 > iReadPointer3 [5:0] $end
$var reg 1 ? iReadReset $end
$var reg 2 @ iReadResetTime [1:0] $end
$var reg 6 A iWritePointer [5:0] $end
$var reg 6 B iWritePointer4 [5:0] $end
$var reg 1 C iWriteReset $end
$var reg 2 D iWriteResetTime [1:0] $end
$upscope $end
$scope task read_data $end
$upscope $end
$scope task write_data $end
$var reg 9 E data [8:0] $end
$upscope $end
$upscope $end
$enddefinitions $end
#0
$dumpvars
bx E
b11 D
1C
bx B
bx A
b11 @
1?
bx >
bx =
bx <
bx ;
bx :
bx 9
bx 8
bx 7
bx 6
bx 5
14
13
bx 2
bx 1
b0 0
bx /
bx .
bx -
bx ,
0+
b0 *
0)
1(
0'
0&
1%
1$
bx #
bx "
bx !
$end
#5000
b0 #
b0 -
b0 2
b0 =
b0 B
b0 ;
b0 :
b0 9
b0 5
b0 !
b0 /
b0 1
b0 A
b0 8
b0 >
b0 7
b0 6
1&
1)
#10000
0&
0)
0(
#15000
b10 @
b10 D
1&
1)
#20000
0&
0)
#25000
b0 @
b0 D
1&
1)
#30000
0&
0)
#35000
0$
03
0?
0C
1&
1)
#40000
0&
0)
#45000
1&
1)
#50000
0&
0)
#55000
1&
1)
#60000
0&
0)
b101111010 *
b101111010 0
b101111010 E
#62000
1+
#65000
b1 !
b1 /
b1 1
b1 A
1&
1)
#70000
0&
0)
#72000
0+
#75000
b1 8
1&
1)
#80000
0&
0)
#85000
b1 9
1&
1)
#90000
0&
0)
#95000
b1 :
1&
1)
#100000
0&
0)
#105000
b1 ;
1&
1)
#110000
0&
0)
#115000
0%
04
b1 #
b1 -
b1 2
b1 B
1&
1)
#120000
0&
0)
#125000
1&
1)
#130000
0&
0)
#135000
1&
1)
#140000
0&
0)
#145000
1&
1)
#150000
0&
0)
#155000
1&
1)
#160000
0&
0)
#165000
1&
1)
#170000
0&
0)
#172000
1'
#175000
1%
14
b0 #
b0 -
b0 2
b1 =
b101111010 "
b101111010 .
b101111010 <
1&
1)
#180000
b1 5
0&
0)
#182000
0'
#185000
b1 6
1&
1)
#190000
0&
0)
#195000
b1 7
1&
1)
#200000
0&
0)
#205000
b0 !
b0 /
b0 1
b1 >
1&
1)
#210000
0&
0)
#215000
1&
1)
#220000
0&
0)
#225000
1&
1)
#230000
0&
0)
#235000
1&
1)
#240000
0&
0)
#245000
1&
1)
#250000
0&
0)
#255000
1&
1)
#260000
0&
0)
#265000
1&
1)
#270000
0&
0)
#275000
1&
1)
#280000
0&
0)
#285000
1&
1)
#290000
0&
0)
#295000
1&
1)
#300000
0&
0)
#305000
1&
1)
#310000
0&
0)
#315000
1&
1)
#320000
0&
0)
#325000
1&
1)
#330000
0&
0)
#335000
1&
1)
#340000
0&
0)
#345000
1&
1)
#350000
0&
0)
#355000
1&
1)
#360000
0&
0)
#365000
1&
1)
#370000
0&
0)
#375000
1&
1)
#380000
0&
0)
#384000
b0 *
b0 0
b0 E
b0 ,
#385000
1&
1)
#386000
1+
#390000
0&
0)
#395000
b1 !
b1 /
b1 1
b10 A
1&
1)
#396000
0+
#400000
0&
0)
#405000
b11 8
1&
1)
#410000
0&
0)
#411000
b1 *
b1 0
b1 E
b1 ,
#413000
1+
#415000
b11 9
b10 !
b10 /
b10 1
b11 A
1&
1)
#420000
0&
0)
#423000
0+
#425000
b11 :
b10 8
1&
1)
#430000
0&
0)
#435000
b11 ;
b10 9
1&
1)
#438000
b10 *
b10 0
b10 E
b10 ,
#440000
1+
0&
0)
#445000
0%
04
b1 #
b1 -
b1 2
b10 B
b10 :
b11 !
b11 /
b11 1
b100 A
1&
1)
#450000
0&
0)
0+
#455000
b10 ;
b110 8
1&
1)
#460000
0&
0)
#465000
b10 #
b10 -
b10 2
b11 B
b110 9
1&
1)
b11 *
b11 0
b11 E
b11 ,
#467000
1+
#470000
0&
0)
#475000
b110 :
b100 !
b100 /
b100 1
b101 A
1&
1)
#477000
0+
#480000
0&
0)
#485000
b110 ;
b111 8
1&
1)
#490000
0&
0)
#492000
b100 *
b100 0
b100 E
b100 ,
#494000
1+
#495000
b11 #
b11 -
b11 2
b100 B
b111 9
b101 !
b101 /
b101 1
b110 A
1&
1)
#500000
0&
0)
#504000
0+
#505000
b111 :
b101 8
1&
1)
#510000
0&
0)
#515000
b111 ;
b101 9
1&
1)
#519000
b101 *
b101 0
b101 E
b101 ,
#520000
0&
0)
#521000
1+
#525000
b100 #
b100 -
b100 2
b101 B
b101 :
b110 !
b110 /
b110 1
b111 A
1&
1)
#530000
0&
0)
#531000
0+
#535000
b101 ;
b100 8
1&
1)
#540000
0&
0)
#545000
b101 #
b101 -
b101 2
b110 B
b100 9
1&
1)
#546000
b110 *
b110 0
b110 E
b110 ,
#548000
1+
#550000
0&
0)
#555000
b100 :
b111 !
b111 /
b111 1
b1000 A
1&
1)
#558000
0+
#560000
0&
0)
#565000
b100 ;
b1100 8
1&
1)
#570000
0&
0)
#573000
b111 *
b111 0
b111 E
b111 ,
#575000
b110 #
b110 -
b110 2
b111 B
b1100 9
b1000 !
b1000 /
b1000 1
b1001 A
1+
1&
1)
#580000
0&
0)
#585000
b1100 :
b1101 8
1&
1)
0+
#590000
0&
0)
#595000
b1100 ;
b1101 9
1&
1)
#600000
0&
0)
b1000 *
b1000 0
b1000 E
b1000 ,
#602000
1+
#605000
b111 #
b111 -
b111 2
b1000 B
b1101 :
b1001 !
b1001 /
b1001 1
b1010 A
1&
1)
#610000
0&
0)
#612000
0+
#615000
b1101 ;
b1111 8
1&
1)
#620000
0&
0)
#625000
b1000 #
b1000 -
b1000 2
b1001 B
b1111 9
1&
1)
#627000
b1001 *
b1001 0
b1001 E
b1001 ,
#629000
1+
#630000
0&
0)
#635000
b1111 :
b1010 !
b1010 /
b1010 1
b1011 A
1&
1)
#639000
0+
#640000
0&
0)
#645000
b1111 ;
b1110 8
1&
1)
#650000
0&
0)
#654000
b1010 *
b1010 0
b1010 E
b1010 ,
#655000
b1001 #
b1001 -
b1001 2
b1010 B
b1110 9
1&
1)
#656000
1+
#660000
0&
0)
#665000
b1110 :
b1011 !
b1011 /
b1011 1
b1100 A
1&
1)
#666000
0+
#670000
0&
0)
#675000
b1110 ;
b1010 8
1&
1)
#680000
0&
0)
#681000
b1011 *
b1011 0
b1011 E
b1011 ,
#683000
1+
#685000
b1010 #
b1010 -
b1010 2
b1011 B
b1010 9
b1100 !
b1100 /
b1100 1
b1101 A
1&
1)
#690000
0&
0)
#693000
0+
#695000
b1010 :
b1011 8
1&
1)
#700000
0&
0)
#705000
b1010 ;
b1011 9
1&
1)
#708000
b1100 *
b1100 0
b1100 E
b1100 ,
#710000
1+
0&
0)
#715000
b1011 #
b1011 -
b1011 2
b1100 B
b1011 :
b1101 !
b1101 /
b1101 1
b1110 A
1&
1)
#720000
0&
0)
0+
#725000
b1011 ;
b1001 8
1&
1)
#730000
0&
0)
#735000
b1100 #
b1100 -
b1100 2
b1101 B
b1001 9
1&
1)
b1101 *
b1101 0
b1101 E
b1101 ,
#737000
1+
#740000
0&
0)
#745000
b1001 :
b1110 !
b1110 /
b1110 1
b1111 A
1&
1)
#747000
0+
#750000
0&
0)
#755000
b1001 ;
b1000 8
1&
1)
#760000
0&
0)
#762000
b1110 *
b1110 0
b1110 E
b1110 ,
#764000
1+
#765000
b1101 #
b1101 -
b1101 2
b1110 B
b1000 9
b1111 !
b1111 /
b1111 1
b10000 A
1&
1)
#770000
0&
0)
#774000
0+
#775000
b1000 :
b11000 8
1&
1)
#780000
0&
0)
#785000
b1000 ;
b11000 9
1&
1)
#789000
b1111 *
b1111 0
b1111 E
b1111 ,
#790000
0&
0)
#791000
1+
#795000
b1110 #
b1110 -
b1110 2
b1111 B
b11000 :
b10000 !
b10000 /
b10000 1
b10001 A
1&
1)
#800000
0&
0)
#801000
0+
#805000
b11000 ;
b11001 8
1&
1)
#810000
0&
0)
#815000
b1111 #
b1111 -
b1111 2
b10000 B
b11001 9
1&
1)
#816000
b10000 *
b10000 0
b10000 E
b10000 ,
#818000
1+
#820000
0&
0)
#825000
b11001 :
b10001 !
b10001 /
b10001 1
b10010 A
1&
1)
#828000
0+
#830000
0&
0)
#835000
b11001 ;
b11011 8
1&
1)
#840000
0&
0)
#843000
b10001 *
b10001 0
b10001 E
b10001 ,
#845000
b10000 #
b10000 -
b10000 2
b10001 B
b11011 9
b10010 !
b10010 /
b10010 1
b10011 A
1+
1&
1)
#850000
0&
0)
#855000
b11011 :
b11010 8
1&
1)
0+
#860000
0&
0)
#865000
b11011 ;
b11010 9
1&
1)
#870000
0&
0)
b10010 *
b10010 0
b10010 E
b10010 ,
#872000
1+
#875000
b10001 #
b10001 -
b10001 2
b10010 B
b11010 :
b10011 !
b10011 /
b10011 1
b10100 A
1&
1)
#880000
0&
0)
#882000
0+
#885000
b11010 ;
b11110 8
1&
1)
#890000
0&
0)
#895000
b10010 #
b10010 -
b10010 2
b10011 B
b11110 9
1&
1)
#897000
b10011 *
b10011 0
b10011 E
b10011 ,
#899000
1+
#900000
0&
0)
#905000
b11110 :
b10100 !
b10100 /
b10100 1
b10101 A
1&
1)
#909000
0+
#910000
0&
0)
#915000
b11110 ;
b11111 8
1&
1)
#920000
0&
0)
#924000
b10100 *
b10100 0
b10100 E
b10100 ,
#925000
b10011 #
b10011 -
b10011 2
b10100 B
b11111 9
1&
1)
#926000
1+
#930000
0&
0)
#935000
b11111 :
b10101 !
b10101 /
b10101 1
b10110 A
1&
1)
#936000
0+
#940000
0&
0)
#945000
b11111 ;
b11101 8
1&
1)
#950000
0&
0)
#951000
b10101 *
b10101 0
b10101 E
b10101 ,
#953000
1+
#955000
b10100 #
b10100 -
b10100 2
b10101 B
b11101 9
b10110 !
b10110 /
b10110 1
b10111 A
1&
1)
#960000
0&
0)
#963000
0+
#965000
b11101 :
b11100 8
1&
1)
#970000
0&
0)
#975000
b11101 ;
b11100 9
1&
1)
#978000
b10110 *
b10110 0
b10110 E
b10110 ,
#980000
1+
0&
0)
#985000
b10101 #
b10101 -
b10101 2
b10110 B
b11100 :
b10111 !
b10111 /
b10111 1
b11000 A
1&
1)
#990000
0&
0)
0+
#995000
b11100 ;
b10100 8
1&
1)
#1000000
0&
0)
#1005000
b10110 #
b10110 -
b10110 2
b10111 B
b10100 9
1&
1)
b10111 *
b10111 0
b10111 E
b10111 ,
#1007000
1+
#1010000
0&
0)
#1015000
b10100 :
b11000 !
b11000 /
b11000 1
b11001 A
1&
1)
#1017000
0+
#1020000
0&
0)
#1025000
b10100 ;
b10101 8
1&
1)
#1030000
0&
0)
#1032000
b11000 *
b11000 0
b11000 E
b11000 ,
#1034000
1+
#1035000
b10111 #
b10111 -
b10111 2
b11000 B
b10101 9
b11001 !
b11001 /
b11001 1
b11010 A
1&
1)
#1040000
0&
0)
#1044000
0+
#1045000
b10101 :
b10111 8
1&
1)
#1050000
0&
0)
#1055000
b10101 ;
b10111 9
1&
1)
#1059000
b11001 *
b11001 0
b11001 E
b11001 ,
#1060000
0&
0)
#1061000
1+
#1065000
b11000 #
b11000 -
b11000 2
b11001 B
b10111 :
b11010 !
b11010 /
b11010 1
b11011 A
1&
1)
#1070000
0&
0)
#1071000
0+
#1075000
b10111 ;
b10110 8
1&
1)
#1080000
0&
0)
#1085000
b11001 #
b11001 -
b11001 2
b11010 B
b10110 9
1&
1)
#1086000
b11010 *
b11010 0
b11010 E
b11010 ,
#1088000
1+
#1090000
0&
0)
#1095000
b10110 :
b11011 !
b11011 /
b11011 1
b11100 A
1&
1)
#1098000
0+
#1100000
0&
0)
#1105000
b10110 ;
b10010 8
1&
1)
#1110000
0&
0)
#1113000
b11011 *
b11011 0
b11011 E
b11011 ,
#1115000
b11010 #
b11010 -
b11010 2
b11011 B
b10010 9
b11100 !
b11100 /
b11100 1
b11101 A
1+
1&
1)
#1120000
0&
0)
#1125000
b10010 :
b10011 8
1&
1)
0+
#1130000
0&
0)
#1135000
b10010 ;
b10011 9
1&
1)
#1140000
0&
0)
b11100 *
b11100 0
b11100 E
b11100 ,
#1142000
1+
#1145000
b11011 #
b11011 -
b11011 2
b11100 B
b10011 :
b11101 !
b11101 /
b11101 1
b11110 A
1&
1)
#1150000
0&
0)
#1152000
0+
#1155000
b10011 ;
b10001 8
1&
1)
#1160000
0&
0)
#1165000
b11100 #
b11100 -
b11100 2
b11101 B
b10001 9
1&
1)
#1167000
b11101 *
b11101 0
b11101 E
b11101 ,
#1169000
1+
#1170000
0&
0)
#1175000
b10001 :
b11110 !
b11110 /
b11110 1
b11111 A
1&
1)
#1179000
0+
#1180000
0&
0)
#1185000
b10001 ;
b10000 8
1&
1)
#1190000
0&
0)
#1194000
b11110 *
b11110 0
b11110 E
b11110 ,
#1195000
b11101 #
b11101 -
b11101 2
b11110 B
b10000 9
1&
1)
#1196000
1+
#1200000
0&
0)
#1205000
b10000 :
b11111 !
b11111 /
b11111 1
b100000 A
1&
1)
#1206000
0+
#1210000
0&
0)
#1215000
b10000 ;
b110000 8
1&
1)
#1220000
0&
0)
#1221000
b11111 *
b11111 0
b11111 E
b11111 ,
#1223000
1+
#1225000
b11110 #
b11110 -
b11110 2
b11111 B
b110000 9
b100000 !
b100000 /
b100000 1
b100001 A
1&
1)
#1230000
0&
0)
#1233000
0+
#1235000
b110000 :
b110001 8
1&
1)
#1240000
0&
0)
#1245000
b110000 ;
b110001 9
1&
1)
#1248000
b100000 *
b100000 0
b100000 E
b100000 ,
#1250000
1+
0&
0)
#1255000
b11111 #
b11111 -
b11111 2
b100000 B
b110001 :
b100001 !
b100001 /
b100001 1
b100010 A
1&
1)
#1260000
0&
0)
0+
#1265000
b110001 ;
b110011 8
1&
1)
#1270000
0&
0)
#1275000
b100000 #
b100000 -
b100000 2
b100001 B
b110011 9
1&
1)
b100001 *
b100001 0
b100001 E
b100001 ,
#1277000
1+
#1280000
0&
0)
#1285000
b110011 :
b100010 !
b100010 /
b100010 1
b100011 A
1&
1)
#1287000
0+
#1290000
0&
0)
#1295000
b110011 ;
b110010 8
1&
1)
#1300000
0&
0)
#1302000
b100010 *
b100010 0
b100010 E
b100010 ,
#1304000
1+
#1305000
b100001 #
b100001 -
b100001 2
b100010 B
b110010 9
b100011 !
b100011 /
b100011 1
b100100 A
1&
1)
#1310000
0&
0)
#1314000
0+
#1315000
b110010 :
b110110 8
1&
1)
#1320000
0&
0)
#1325000
b110010 ;
b110110 9
1&
1)
#1329000
b100011 *
b100011 0
b100011 E
b100011 ,
#1330000
0&
0)
#1331000
1+
#1335000
b100010 #
b100010 -
b100010 2
b100011 B
b110110 :
b100100 !
b100100 /
b100100 1
b100101 A
1&
1)
#1340000
0&
0)
#1341000
0+
#1345000
b110110 ;
b110111 8
1&
1)
#1350000
0&
0)
#1355000
b100011 #
b100011 -
b100011 2
b100100 B
b110111 9
1&
1)
#1356000
b100100 *
b100100 0
b100100 E
b100100 ,
#1358000
1+
#1360000
0&
0)
#1365000
b110111 :
b100101 !
b100101 /
b100101 1
b100110 A
1&
1)
#1368000
0+
#1370000
0&
0)
#1375000
b110111 ;
b110101 8
1&
1)
#1380000
0&
0)
#1383000
b100101 *
b100101 0
b100101 E
b100101 ,
#1385000
b100100 #
b100100 -
b100100 2
b100101 B
b110101 9
b100110 !
b100110 /
b100110 1
b100111 A
1+
1&
1)
#1390000
0&
0)
#1395000
b110101 :
b110100 8
1&
1)
0+
#1400000
0&
0)
#1405000
b110101 ;
b110100 9
1&
1)
#1410000
0&
0)
b100110 *
b100110 0
b100110 E
b100110 ,
#1412000
1+
#1415000
b100101 #
b100101 -
b100101 2
b100110 B
b110100 :
b100111 !
b100111 /
b100111 1
b101000 A
1&
1)
#1420000
0&
0)
#1422000
0+
#1425000
b110100 ;
b111100 8
1&
1)
#1430000
0&
0)
#1435000
b100110 #
b100110 -
b100110 2
b100111 B
b111100 9
1&
1)
#1437000
b100111 *
b100111 0
b100111 E
b100111 ,
#1439000
1+
#1440000
0&
0)
#1445000
b111100 :
b101000 !
b101000 /
b101000 1
b101001 A
1&
1)
#1449000
0+
#1450000
0&
0)
#1455000
b111100 ;
b111101 8
1&
1)
#1460000
0&
0)
#1464000
b101000 *
b101000 0
b101000 E
b101000 ,
#1465000
b100111 #
b100111 -
b100111 2
b101000 B
b111101 9
1&
1)
#1466000
1+
#1470000
0&
0)
#1475000
b111101 :
b101001 !
b101001 /
b101001 1
b101010 A
1&
1)
#1476000
0+
#1480000
0&
0)
#1485000
b111101 ;
b111111 8
1&
1)
#1490000
0&
0)
#1491000
b101001 *
b101001 0
b101001 E
b101001 ,
#1493000
1+
#1495000
b101000 #
b101000 -
b101000 2
b101001 B
b111111 9
b101010 !
b101010 /
b101010 1
b101011 A
1&
1)
#1500000
0&
0)
#1503000
0+
#1505000
b111111 :
b111110 8
1&
1)
#1510000
0&
0)
#1515000
b111111 ;
b111110 9
1&
1)
#1518000
b101010 *
b101010 0
b101010 E
b101010 ,
#1520000
1+
0&
0)
#1525000
b101001 #
b101001 -
b101001 2
b101010 B
b111110 :
b101011 !
b101011 /
b101011 1
b101100 A
1&
1)
#1530000
0&
0)
0+
#1535000
b111110 ;
b111010 8
1&
1)
#1540000
0&
0)
#1545000
b101010 #
b101010 -
b101010 2
b101011 B
b111010 9
1&
1)
b101011 *
b101011 0
b101011 E
b101011 ,
#1547000
1+
#1550000
0&
0)
#1555000
b111010 :
b101100 !
b101100 /
b101100 1
b101101 A
1&
1)
#1557000
0+
#1560000
0&
0)
#1565000
b111010 ;
b111011 8
1&
1)
#1570000
0&
0)
#1572000
b101100 *
b101100 0
b101100 E
b101100 ,
#1574000
1+
#1575000
b101011 #
b101011 -
b101011 2
b101100 B
b111011 9
b101101 !
b101101 /
b101101 1
b101110 A
1&
1)
#1580000
0&
0)
#1584000
0+
#1585000
b111011 :
b111001 8
1&
1)
#1590000
0&
0)
#1595000
b111011 ;
b111001 9
1&
1)
#1599000
b101101 *
b101101 0
b101101 E
b101101 ,
#1600000
0&
0)
#1601000
1+
#1605000
b101100 #
b101100 -
b101100 2
b101101 B
b111001 :
b101110 !
b101110 /
b101110 1
b101111 A
1&
1)
#1610000
0&
0)
#1611000
0+
#1615000
b111001 ;
b111000 8
1&
1)
#1620000
0&
0)
#1625000
b101101 #
b101101 -
b101101 2
b101110 B
b111000 9
1&
1)
#1626000
b101110 *
b101110 0
b101110 E
b101110 ,
#1628000
1+
#1630000
0&
0)
#1635000
b111000 :
b101111 !
b101111 /
b101111 1
b110000 A
1&
1)
#1638000
0+
#1640000
0&
0)
#1645000
b111000 ;
b101000 8
1&
1)
#1650000
0&
0)
#1653000
b101111 *
b101111 0
b101111 E
b101111 ,
#1655000
b101110 #
b101110 -
b101110 2
b101111 B
b101000 9
b110000 !
b110000 /
b110000 1
b110001 A
1+
1&
1)
#1660000
0&
0)
#1665000
b101000 :
b101001 8
1&
1)
0+
#1670000
0&
0)
#1675000
b101000 ;
b101001 9
1&
1)
#1680000
0&
0)
b110000 *
b110000 0
b110000 E
b110000 ,
#1682000
1+
#1685000
b101111 #
b101111 -
b101111 2
b110000 B
b101001 :
b110001 !
b110001 /
b110001 1
b110010 A
1&
1)
#1690000
0&
0)
#1692000
0+
#1695000
b101001 ;
b101011 8
1&
1)
#1700000
0&
0)
#1705000
b110000 #
b110000 -
b110000 2
b110001 B
b101011 9
1&
1)
#1707000
b110001 *
b110001 0
b110001 E
b110001 ,
#1709000
1+
#1710000
0&
0)
#1715000
b101011 :
b110010 !
b110010 /
b110010 1
b110011 A
1&
1)
#1719000
0+
#1720000
0&
0)
#1725000
b101011 ;
b101010 8
1&
1)
#1730000
0&
0)
#1734000
b110010 *
b110010 0
b110010 E
b110010 ,
#1735000
b110001 #
b110001 -
b110001 2
b110010 B
b101010 9
1&
1)
#1736000
1+
#1740000
0&
0)
#1745000
b101010 :
b110011 !
b110011 /
b110011 1
b110100 A
1&
1)
#1746000
0+
#1750000
0&
0)
#1755000
b101010 ;
b101110 8
1&
1)
#1760000
0&
0)
#1761000
b110011 *
b110011 0
b110011 E
b110011 ,
#1763000
1+
#1765000
b110010 #
b110010 -
b110010 2
b110011 B
b101110 9
b110100 !
b110100 /
b110100 1
b110101 A
1&
1)
#1770000
0&
0)
#1773000
0+
#1775000
b101110 :
b101111 8
1&
1)
#1780000
0&
0)
#1785000
b101110 ;
b101111 9
1&
1)
#1788000
b110100 *
b110100 0
b110100 E
b110100 ,
#1790000
1+
0&
0)
#1795000
b110011 #
b110011 -
b110011 2
b110100 B
b101111 :
b110101 !
b110101 /
b110101 1
b110110 A
1&
1)
#1800000
0&
0)
0+
#1805000
b101111 ;
b101101 8
1&
1)
#1810000
0&
0)
#1815000
b110100 #
b110100 -
b110100 2
b110101 B
b101101 9
1&
1)
b110101 *
b110101 0
b110101 E
b110101 ,
#1817000
1+
#1820000
0&
0)
#1825000
b101101 :
b110110 !
b110110 /
b110110 1
b110111 A
1&
1)
#1827000
0+
#1830000
0&
0)
#1835000
b101101 ;
b101100 8
1&
1)
#1840000
0&
0)
#1842000
b110110 *
b110110 0
b110110 E
b110110 ,
#1844000
1+
#1845000
b110101 #
b110101 -
b110101 2
b110110 B
b101100 9
b110111 !
b110111 /
b110111 1
b111000 A
1&
1)
#1850000
0&
0)
#1854000
0+
#1855000
b101100 :
b100100 8
1&
1)
#1860000
0&
0)
#1865000
b101100 ;
b100100 9
1&
1)
#1869000
b110111 *
b110111 0
b110111 E
b110111 ,
#1870000
0&
0)
#1871000
1+
#1875000
b110110 #
b110110 -
b110110 2
b110111 B
b100100 :
b111000 !
b111000 /
b111000 1
b111001 A
1&
1)
#1880000
0&
0)
#1881000
0+
#1885000
b100100 ;
b100101 8
1&
1)
#1890000
0&
0)
#1895000
b110111 #
b110111 -
b110111 2
b111000 B
b100101 9
1&
1)
#1896000
b111000 *
b111000 0
b111000 E
b111000 ,
#1898000
1+
#1900000
0&
0)
#1905000
1$
13
b100101 :
b111001 !
b111001 /
b111001 1
b111010 A
1&
1)
#1908000
0+
#1910000
0&
0)
#1915000
b100101 ;
b100111 8
1&
1)
#1920000
0&
0)
#1923000
b111001 *
b111001 0
b111001 E
b111001 ,
#1925000
b111000 #
b111000 -
b111000 2
b111001 B
b100111 9
b111010 !
b111010 /
b111010 1
b111011 A
1+
1&
1)
#1930000
0&
0)
#1935000
b100111 :
b100110 8
1&
1)
0+
#1940000
0&
0)
#1945000
b100111 ;
b100110 9
1&
1)
#1950000
0&
0)
b111010 *
b111010 0
b111010 E
b111010 ,
#1952000
1+
#1955000
b111001 #
b111001 -
b111001 2
b111010 B
b100110 :
b111011 !
b111011 /
b111011 1
b111100 A
1&
1)
#1960000
0&
0)
#1962000
0+
#1965000
b100110 ;
b100010 8
1&
1)
#1970000
0&
0)
#1975000
b111010 #
b111010 -
b111010 2
b111011 B
b100010 9
1&
1)
#1977000
b111011 *
b111011 0
b111011 E
b111011 ,
#1979000
1+
#1980000
0&
0)
#1985000
b100010 :
b111100 !
b111100 /
b111100 1
b111101 A
1&
1)
#1989000
0+
#1990000
0&
0)
#1995000
b100010 ;
b100011 8
1&
1)
#2000000
0&
0)
#2004000
b111100 *
b111100 0
b111100 E
b111100 ,
#2005000
b111011 #
b111011 -
b111011 2
b111100 B
b100011 9
1&
1)
#2006000
1+
#2010000
0&
0)
#2015000
b100011 :
b111101 !
b111101 /
b111101 1
b111110 A
1&
1)
#2016000
0+
#2020000
0&
0)
#2025000
b100011 ;
b100001 8
1&
1)
#2030000
0&
0)
#2031000
b111101 *
b111101 0
b111101 E
b111101 ,
#2033000
1+
#2035000
b111100 #
b111100 -
b111100 2
b111101 B
b100001 9
b111110 !
b111110 /
b111110 1
b111111 A
1&
1)
#2040000
0&
0)
#2043000
0+
#2045000
b100001 :
b100000 8
1&
1)
#2050000
0&
0)
#2055000
b100001 ;
b100000 9
1&
1)
#2058000
b111110 *
b111110 0
b111110 E
b111110 ,
#2060000
1+
0&
0)
#2065000
b111101 #
b111101 -
b111101 2
b111110 B
b100000 :
b111111 !
b111111 /
b111111 1
b0 A
1&
1)
#2070000
0&
0)
0+
#2075000
b100000 ;
b0 8
1&
1)
#2080000
0&
0)
#2085000
b111110 #
b111110 -
b111110 2
b111111 B
b0 9
1&
1)
b111111 ,
#2090000
0&
0)
#2095000
b0 :
1&
1)
#2100000
0&
0)
#2105000
b0 ;
1&
1)
#2110000
0&
0)
#2115000
b111111 #
b111111 -
b111111 2
b0 B
1&
1)
#2120000
0&
0)
#2125000
1&
1)
#2130000
0&
0)
#2135000
1&
1)
#2140000
0&
0)
#2145000
1&
1)
#2150000
0&
0)
#2155000
1&
1)
#2160000
0&
0)
#2165000
1&
1)
#2170000
0&
0)
#2175000
1&
1)
#2180000
0&
0)
#2185000
1&
1)
#2190000
0&
0)
#2195000
1&
1)
#2200000
0&
0)
#2205000
1&
1)
#2210000
0&
0)
#2215000
1&
1)
#2220000
0&
0)
#2225000
1&
1)
#2230000
0&
0)
#2235000
1&
1)
#2240000
0&
0)
#2245000
1&
1)
#2250000
0&
0)
#2255000
1&
1)
#2260000
0&
0)
#2265000
1&
1)
#2270000
0&
0)
#2275000
1&
1)
#2280000
0&
0)
#2285000
1&
1)
#2290000
0&
0)
#2295000
1&
1)
#2300000
0&
0)
#2305000
1&
1)
#2310000
0&
0)
#2315000
1&
1)
#2320000
0&
0)
#2325000
1&
1)
#2330000
0&
0)
#2335000
1&
1)
#2340000
0&
0)
#2345000
1&
1)
#2350000
0&
0)
#2355000
1&
1)
#2360000
0&
0)
#2365000
1&
1)
#2370000
0&
0)
#2375000
1&
1)
#2380000
0&
0)
#2385000
1&
1)
#2390000
0&
0)
#2395000
1&
1)
#2400000
0&
0)
#2405000
1&
1)
#2410000
0&
0)
#2415000
1&
1)
#2420000
0&
0)
#2425000
1&
1)
#2430000
0&
0)
#2435000
1&
1)
#2440000
0&
0)
#2445000
1&
1)
#2450000
0&
0)
#2455000
1&
1)
#2460000
0&
0)
#2465000
1&
1)
#2470000
0&
0)
#2475000
1&
1)
#2480000
0&
0)
#2485000
1&
1)
#2490000
0&
0)
#2495000
1&
1)
#2500000
0&
0)
#2505000
1&
1)
#2510000
0&
0)
#2515000
1&
1)
#2520000
0&
0)
#2525000
1&
1)
#2530000
0&
0)
#2535000
1&
1)
#2540000
0&
0)
#2545000
1&
1)
#2550000
0&
0)
#2555000
1&
1)
#2560000
0&
0)
#2565000
1&
1)
#2570000
0&
0)
#2575000
1&
1)
#2580000
0&
0)
#2585000
1&
1)
#2590000
0&
0)
#2595000
1&
1)
#2600000
0&
0)
#2605000
1&
1)
#2610000
0&
0)
#2615000
1&
1)
#2620000
0&
0)
#2625000
1&
1)
#2630000
0&
0)
#2635000
1&
1)
#2640000
0&
0)
#2645000
1&
1)
#2650000
0&
0)
#2655000
1&
1)
#2660000
0&
0)
#2665000
1&
1)
#2670000
0&
0)
#2675000
1&
1)
#2680000
0&
0)
#2685000
1&
1)
#2690000
0&
0)
#2695000
1&
1)
#2700000
0&
0)
#2705000
1&
1)
#2710000
0&
0)
#2715000
1&
1)
#2720000
0&
0)
#2725000
1&
1)
#2730000
0&
0)
#2735000
1&
1)
#2740000
0&
0)
#2745000
1&
1)
#2750000
0&
0)
#2755000
1&
1)
#2760000
0&
0)
#2765000
1&
1)
#2770000
0&
0)
#2775000
1&
1)
#2780000
0&
0)
#2785000
1&
1)
#2790000
0&
0)
#2795000
1&
1)
#2800000
0&
0)
#2805000
1&
1)
#2810000
0&
0)
#2815000
1&
1)
#2820000
0&
0)
#2825000
1&
1)
#2830000
0&
0)
#2835000
1&
1)
#2840000
0&
0)
#2845000
1&
1)
#2850000
0&
0)
#2855000
1&
1)
#2860000
0&
0)
#2865000
1&
1)
#2870000
0&
0)
#2875000
1&
1)
#2880000
0&
0)
#2885000
1&
1)
#2890000
0&
0)
#2895000
1&
1)
#2900000
0&
0)
#2905000
1&
1)
#2910000
0&
0)
#2915000
1&
1)
#2920000
0&
0)
#2925000
1&
1)
#2930000
0&
0)
#2935000
1&
1)
#2940000
0&
0)
#2945000
1&
1)
#2950000
0&
0)
#2955000
1&
1)
#2960000
0&
0)
#2965000
1&
1)
#2970000
0&
0)
#2975000
1&
1)
#2980000
0&
0)
#2985000
1&
1)
#2990000
0&
0)
#2995000
1&
1)
#3000000
0&
0)
#3005000
1&
1)
#3010000
0&
0)
#3015000
1&
1)
#3020000
0&
0)
#3025000
1&
1)
#3030000
0&
0)
#3035000
1&
1)
#3040000
0&
0)
#3045000
1&
1)
#3050000
0&
0)
#3055000
1&
1)
#3060000
0&
0)
#3065000
1&
1)
#3070000
0&
0)
#3075000
1&
1)
#3080000
0&
0)
#3085000
1&
1)
#3090000
0&
0)
#3095000
1&
1)
#3100000
0&
0)
#3105000
1&
1)
#3110000
0&
0)
#3115000
1&
1)
#3120000
0&
0)
#3125000
1&
1)
#3130000
0&
0)
#3135000
1&
1)
#3140000
0&
0)
#3145000
1&
1)
#3150000
0&
0)
#3155000
1&
1)
#3160000
0&
0)
#3165000
1&
1)
#3170000
0&
0)
#3175000
1&
1)
#3180000
0&
0)
#3185000
1&
1)
#3190000
0&
0)
#3195000
1&
1)
#3200000
0&
0)
#3205000
1&
1)
#3210000
0&
0)
#3215000
1&
1)
#3220000
0&
0)
#3225000
1&
1)
#3230000
0&
0)
#3235000
1&
1)
#3240000
0&
0)
#3245000
1&
1)
#3250000
0&
0)
#3255000
1&
1)
#3260000
0&
0)
#3265000
1&
1)
#3270000
0&
0)
#3275000
1&
1)
#3280000
0&
0)
#3285000
b0 "
b0 .
b0 <
b111110 #
b111110 -
b111110 2
b10 =
1&
1)
1'
b0 ,
#3290000
b11 5
0&
0)
#3295000
b11 6
1&
1)
0'
#3300000
0&
0)
#3305000
b11 7
1&
1)
#3310000
0&
0)
#3312000
1'
b1 ,
#3315000
b111101 #
b111101 -
b111101 2
b11 =
b1 "
b1 .
b1 <
b111110 !
b111110 /
b111110 1
b10 >
1&
1)
#3320000
b10 5
0&
0)
#3322000
0'
#3325000
b10 6
1&
1)
#3330000
0&
0)
#3335000
b10 7
1&
1)
#3339000
1'
b10 ,
#3340000
0&
0)
#3345000
b10 "
b10 .
b10 <
b111100 #
b111100 -
b111100 2
b100 =
b111101 !
b111101 /
b111101 1
b11 >
1&
1)
#3349000
0'
#3350000
b110 5
0&
0)
#3355000
b110 6
1&
1)
#3360000
0&
0)
#3365000
b110 7
1&
1)
#3366000
1'
b11 ,
#3370000
0&
0)
#3375000
b111011 #
b111011 -
b111011 2
b101 =
b11 "
b11 .
b11 <
b111100 !
b111100 /
b111100 1
b100 >
1&
1)
#3376000
0'
#3380000
b111 5
0&
0)
#3385000
b111 6
1&
1)
#3390000
0&
0)
#3393000
1'
b100 ,
#3395000
b111010 #
b111010 -
b111010 2
b110 =
b100 "
b100 .
b100 <
b111 7
1&
1)
#3400000
b101 5
0&
0)
#3403000
0'
#3405000
b111011 !
b111011 /
b111011 1
b101 >
b101 6
1&
1)
#3410000
0&
0)
#3415000
b101 7
1&
1)
#3420000
0&
0)
1'
b101 ,
#3425000
b101 "
b101 .
b101 <
b111001 #
b111001 -
b111001 2
b111 =
b111010 !
b111010 /
b111010 1
b110 >
1&
1)
#3430000
b100 5
0&
0)
0'
#3435000
b100 6
1&
1)
#3440000
0&
0)
#3445000
b100 7
1&
1)
#3447000
1'
b110 ,
#3450000
0&
0)
#3455000
b111000 #
b111000 -
b111000 2
b1000 =
b110 "
b110 .
b110 <
b111001 !
b111001 /
b111001 1
b111 >
1&
1)
#3457000
0'
#3460000
b1100 5
0&
0)
#3465000
b1100 6
1&
1)
#3470000
0&
0)
#3474000
1'
b111 ,
#3475000
b110111 #
b110111 -
b110111 2
b1001 =
b111 "
b111 .
b111 <
b1100 7
1&
1)
#3480000
b1101 5
0&
0)
#3484000
0'
#3485000
0$
03
b111000 !
b111000 /
b111000 1
b1000 >
b1101 6
1&
1)
#3490000
0&
0)
#3495000
b1101 7
1&
1)
#3500000
0&
0)
#3501000
1'
b1000 ,
#3505000
b1000 "
b1000 .
b1000 <
b110110 #
b110110 -
b110110 2
b1010 =
b110111 !
b110111 /
b110111 1
b1001 >
1&
1)
#3510000
b1111 5
0&
0)
#3511000
0'
#3515000
b1111 6
1&
1)
#3520000
0&
0)
#3525000
b1111 7
1&
1)
#3528000
1'
b1001 ,
#3530000
0&
0)
#3535000
b110101 #
b110101 -
b110101 2
b1011 =
b1001 "
b1001 .
b1001 <
b110110 !
b110110 /
b110110 1
b1010 >
1&
1)
#3538000
0'
#3540000
b1110 5
0&
0)
#3545000
b1110 6
1&
1)
#3550000
0&
0)
#3555000
b110100 #
b110100 -
b110100 2
b1100 =
b1010 "
b1010 .
b1010 <
b1110 7
1&
1)
1'
b1010 ,
#3560000
b1010 5
0&
0)
#3565000
b110101 !
b110101 /
b110101 1
b1011 >
b1010 6
1&
1)
0'
#3570000
0&
0)
#3575000
b1010 7
1&
1)
#3580000
0&
0)
#3582000
1'
b1011 ,
#3585000
b1011 "
b1011 .
b1011 <
b110011 #
b110011 -
b110011 2
b1101 =
b110100 !
b110100 /
b110100 1
b1100 >
1&
1)
#3590000
b1011 5
0&
0)
#3592000
0'
#3595000
b1011 6
1&
1)
#3600000
0&
0)
#3605000
b1011 7
1&
1)
#3609000
1'
b1100 ,
#3610000
0&
0)
#3615000
b110010 #
b110010 -
b110010 2
b1110 =
b1100 "
b1100 .
b1100 <
b110011 !
b110011 /
b110011 1
b1101 >
1&
1)
#3619000
0'
#3620000
b1001 5
0&
0)
#3625000
b1001 6
1&
1)
#3630000
0&
0)
#3635000
b1001 7
1&
1)
#3636000
1'
b1101 ,
#3640000
0&
0)
#3645000
b1101 "
b1101 .
b1101 <
b110001 #
b110001 -
b110001 2
b1111 =
b110010 !
b110010 /
b110010 1
b1110 >
1&
1)
#3646000
0'
#3650000
b1000 5
0&
0)
#3655000
b1000 6
1&
1)
#3660000
0&
0)
#3663000
1'
b1110 ,
#3665000
b1110 "
b1110 .
b1110 <
b110000 #
b110000 -
b110000 2
b10000 =
b1000 7
1&
1)
#3670000
b11000 5
0&
0)
#3673000
0'
#3675000
b110001 !
b110001 /
b110001 1
b1111 >
b11000 6
1&
1)
#3680000
0&
0)
#3685000
b11000 7
1&
1)
#3690000
0&
0)
1'
b1111 ,
#3695000
b101111 #
b101111 -
b101111 2
b10001 =
b1111 "
b1111 .
b1111 <
b110000 !
b110000 /
b110000 1
b10000 >
1&
1)
#3700000
b11001 5
0&
0)
0'
#3705000
b11001 6
1&
1)
#3710000
0&
0)
#3715000
b11001 7
1&
1)
#3717000
1'
b10000 ,
#3720000
0&
0)
#3725000
b10000 "
b10000 .
b10000 <
b101110 #
b101110 -
b101110 2
b10010 =
b101111 !
b101111 /
b101111 1
b10001 >
1&
1)
#3727000
0'
#3730000
b11011 5
0&
0)
#3735000
b11011 6
1&
1)
#3740000
0&
0)
#3744000
1'
b10001 ,
#3745000
b10001 "
b10001 .
b10001 <
b101101 #
b101101 -
b101101 2
b10011 =
b11011 7
1&
1)
#3750000
b11010 5
0&
0)
#3754000
0'
#3755000
b101110 !
b101110 /
b101110 1
b10010 >
b11010 6
1&
1)
#3760000
0&
0)
#3765000
b11010 7
1&
1)
#3770000
0&
0)
#3771000
1'
b10010 ,
#3775000
b101100 #
b101100 -
b101100 2
b10100 =
b10010 "
b10010 .
b10010 <
b101101 !
b101101 /
b101101 1
b10011 >
1&
1)
#3780000
b11110 5
0&
0)
#3781000
0'
#3785000
b11110 6
1&
1)
#3790000
0&
0)
#3795000
b11110 7
1&
1)
#3798000
1'
b10011 ,
#3800000
0&
0)
#3805000
b10011 "
b10011 .
b10011 <
b101011 #
b101011 -
b101011 2
b10101 =
b101100 !
b101100 /
b101100 1
b10100 >
1&
1)
#3808000
0'
#3810000
b11111 5
0&
0)
#3815000
b11111 6
1&
1)
#3820000
0&
0)
#3825000
b10100 "
b10100 .
b10100 <
b101010 #
b101010 -
b101010 2
b10110 =
b11111 7
1&
1)
1'
b10100 ,
#3830000
b11101 5
0&
0)
#3835000
b101011 !
b101011 /
b101011 1
b10101 >
b11101 6
1&
1)
0'
#3840000
0&
0)
#3845000
b11101 7
1&
1)
#3850000
0&
0)
#3852000
1'
b10101 ,
#3855000
b101001 #
b101001 -
b101001 2
b10111 =
b10101 "
b10101 .
b10101 <
b101010 !
b101010 /
b101010 1
b10110 >
1&
1)
#3860000
b11100 5
0&
0)
#3862000
0'
#3865000
b11100 6
1&
1)
#3870000
0&
0)
#3875000
b11100 7
1&
1)
#3879000
1'
b10110 ,
#3880000
0&
0)
#3885000
b10110 "
b10110 .
b10110 <
b101000 #
b101000 -
b101000 2
b11000 =
b101001 !
b101001 /
b101001 1
b10111 >
1&
1)
#3889000
0'
#3890000
b10100 5
0&
0)
#3895000
b10100 6
1&
1)
#3900000
0&
0)
#3905000
b10100 7
1&
1)
#3906000
1'
b10111 ,
#3910000
0&
0)
#3915000
b100111 #
b100111 -
b100111 2
b11001 =
b10111 "
b10111 .
b10111 <
b101000 !
b101000 /
b101000 1
b11000 >
1&
1)
#3916000
0'
#3920000
b10101 5
0&
0)
#3925000
b10101 6
1&
1)
#3930000
0&
0)
#3933000
1'
b11000 ,
#3935000
b100110 #
b100110 -
b100110 2
b11010 =
b11000 "
b11000 .
b11000 <
b10101 7
1&
1)
#3940000
b10111 5
0&
0)
#3943000
0'
#3945000
b100111 !
b100111 /
b100111 1
b11001 >
b10111 6
1&
1)
#3950000
0&
0)
#3955000
b10111 7
1&
1)
#3960000
0&
0)
1'
b11001 ,
#3965000
b11001 "
b11001 .
b11001 <
b100101 #
b100101 -
b100101 2
b11011 =
b100110 !
b100110 /
b100110 1
b11010 >
1&
1)
#3970000
b10110 5
0&
0)
0'
#3975000
b10110 6
1&
1)
#3980000
0&
0)
#3985000
b10110 7
1&
1)
#3987000
1'
b11010 ,
#3990000
0&
0)
#3995000
b100100 #
b100100 -
b100100 2
b11100 =
b11010 "
b11010 .
b11010 <
b100101 !
b100101 /
b100101 1
b11011 >
1&
1)
#3997000
0'
#4000000
b10010 5
0&
0)
#4005000
b10010 6
1&
1)
#4010000
0&
0)
#4014000
1'
b11011 ,
#4015000
b100011 #
b100011 -
b100011 2
b11101 =
b11011 "
b11011 .
b11011 <
b10010 7
1&
1)
#4020000
b10011 5
0&
0)
#4024000
0'
#4025000
b100100 !
b100100 /
b100100 1
b11100 >
b10011 6
1&
1)
#4030000
0&
0)
#4035000
b10011 7
1&
1)
#4040000
0&
0)
#4041000
1'
b11100 ,
#4045000
b11100 "
b11100 .
b11100 <
b100010 #
b100010 -
b100010 2
b11110 =
b100011 !
b100011 /
b100011 1
b11101 >
1&
1)
#4050000
b10001 5
0&
0)
#4051000
0'
#4055000
b10001 6
1&
1)
#4060000
0&
0)
#4065000
b10001 7
1&
1)
#4068000
1'
b11101 ,
#4070000
0&
0)
#4075000
b100001 #
b100001 -
b100001 2
b11111 =
b11101 "
b11101 .
b11101 <
b100010 !
b100010 /
b100010 1
b11110 >
1&
1)
#4078000
0'
#4080000
b10000 5
0&
0)
#4085000
b10000 6
1&
1)
#4090000
0&
0)
#4095000
b100000 #
b100000 -
b100000 2
b100000 =
b11110 "
b11110 .
b11110 <
b10000 7
1&
1)
1'
b11110 ,
#4100000
b110000 5
0&
0)
#4105000
b100001 !
b100001 /
b100001 1
b11111 >
b110000 6
1&
1)
0'
#4110000
0&
0)
#4115000
b110000 7
1&
1)
#4120000
0&
0)
#4122000
1'
b11111 ,
#4125000
b11111 "
b11111 .
b11111 <
b11111 #
b11111 -
b11111 2
b100001 =
b100000 !
b100000 /
b100000 1
b100000 >
1&
1)
#4130000
b110001 5
0&
0)
#4132000
0'
#4135000
b110001 6
1&
1)
#4140000
0&
0)
#4145000
b110001 7
1&
1)
#4149000
1'
b100000 ,
#4150000
0&
0)
#4155000
b11110 #
b11110 -
b11110 2
b100010 =
b100000 "
b100000 .
b100000 <
b11111 !
b11111 /
b11111 1
b100001 >
1&
1)
#4159000
0'
#4160000
b110011 5
0&
0)
#4165000
b110011 6
1&
1)
#4170000
0&
0)
#4175000
b110011 7
1&
1)
#4176000
1'
b100001 ,
#4180000
0&
0)
#4185000
b100001 "
b100001 .
b100001 <
b11101 #
b11101 -
b11101 2
b100011 =
b11110 !
b11110 /
b11110 1
b100010 >
1&
1)
#4186000
0'
#4190000
b110010 5
0&
0)
#4195000
b110010 6
1&
1)
#4200000
0&
0)
#4203000
1'
b100010 ,
#4205000
b100010 "
b100010 .
b100010 <
b11100 #
b11100 -
b11100 2
b100100 =
b110010 7
1&
1)
#4210000
b110110 5
0&
0)
#4213000
0'
#4215000
b11101 !
b11101 /
b11101 1
b100011 >
b110110 6
1&
1)
#4220000
0&
0)
#4225000
b110110 7
1&
1)
#4230000
0&
0)
1'
b100011 ,
#4235000
b11011 #
b11011 -
b11011 2
b100101 =
b100011 "
b100011 .
b100011 <
b11100 !
b11100 /
b11100 1
b100100 >
1&
1)
#4240000
b110111 5
0&
0)
0'
#4245000
b110111 6
1&
1)
#4250000
0&
0)
#4255000
b110111 7
1&
1)
#4257000
1'
b100100 ,
#4260000
0&
0)
#4265000
b100100 "
b100100 .
b100100 <
b11010 #
b11010 -
b11010 2
b100110 =
b11011 !
b11011 /
b11011 1
b100101 >
1&
1)
#4267000
0'
#4270000
b110101 5
0&
0)
#4275000
b110101 6
1&
1)
#4280000
0&
0)
#4284000
1'
b100101 ,
#4285000
b100101 "
b100101 .
b100101 <
b11001 #
b11001 -
b11001 2
b100111 =
b110101 7
1&
1)
#4290000
b110100 5
0&
0)
#4294000
0'
#4295000
b11010 !
b11010 /
b11010 1
b100110 >
b110100 6
1&
1)
#4300000
0&
0)
#4305000
b110100 7
1&
1)
#4310000
0&
0)
#4311000
1'
b100110 ,
#4315000
b11000 #
b11000 -
b11000 2
b101000 =
b100110 "
b100110 .
b100110 <
b11001 !
b11001 /
b11001 1
b100111 >
1&
1)
#4320000
b111100 5
0&
0)
#4321000
0'
#4325000
b111100 6
1&
1)
#4330000
0&
0)
#4335000
b111100 7
1&
1)
#4338000
1'
b100111 ,
#4340000
0&
0)
#4345000
b100111 "
b100111 .
b100111 <
b10111 #
b10111 -
b10111 2
b101001 =
b11000 !
b11000 /
b11000 1
b101000 >
1&
1)
#4348000
0'
#4350000
b111101 5
0&
0)
#4355000
b111101 6
1&
1)
#4360000
0&
0)
#4365000
b101000 "
b101000 .
b101000 <
b10110 #
b10110 -
b10110 2
b101010 =
b111101 7
1&
1)
1'
b101000 ,
#4370000
b111111 5
0&
0)
#4375000
b10111 !
b10111 /
b10111 1
b101001 >
b111111 6
1&
1)
0'
#4380000
0&
0)
#4385000
b111111 7
1&
1)
#4390000
0&
0)
#4392000
1'
b101001 ,
#4395000
b10101 #
b10101 -
b10101 2
b101011 =
b101001 "
b101001 .
b101001 <
b10110 !
b10110 /
b10110 1
b101010 >
1&
1)
#4400000
b111110 5
0&
0)
#4402000
0'
#4405000
b111110 6
1&
1)
#4410000
0&
0)
#4415000
b111110 7
1&
1)
#4419000
1'
b101010 ,
#4420000
0&
0)
#4425000
b101010 "
b101010 .
b101010 <
b10100 #
b10100 -
b10100 2
b101100 =
b10101 !
b10101 /
b10101 1
b101011 >
1&
1)
#4429000
0'
#4430000
b111010 5
0&
0)
#4435000
b111010 6
1&
1)
#4440000
0&
0)
#4445000
b111010 7
1&
1)
#4446000
1'
b101011 ,
#4450000
0&
0)
#4455000
b10011 #
b10011 -
b10011 2
b101101 =
b101011 "
b101011 .
b101011 <
b10100 !
b10100 /
b10100 1
b101100 >
1&
1)
#4456000
0'
#4460000
b111011 5
0&
0)
#4465000
b111011 6
1&
1)
#4470000
0&
0)
#4473000
1'
b101100 ,
#4475000
b10010 #
b10010 -
b10010 2
b101110 =
b101100 "
b101100 .
b101100 <
b111011 7
1&
1)
#4480000
b111001 5
0&
0)
#4483000
0'
#4485000
b10011 !
b10011 /
b10011 1
b101101 >
b111001 6
1&
1)
#4490000
0&
0)
#4495000
b111001 7
1&
1)
#4500000
0&
0)
1'
b101101 ,
#4505000
b101101 "
b101101 .
b101101 <
b10001 #
b10001 -
b10001 2
b101111 =
b10010 !
b10010 /
b10010 1
b101110 >
1&
1)
#4510000
b111000 5
0&
0)
0'
#4515000
b111000 6
1&
1)
#4520000
0&
0)
#4525000
b111000 7
1&
1)
#4527000
1'
b101110 ,
#4530000
0&
0)
#4535000
b10000 #
b10000 -
b10000 2
b110000 =
b101110 "
b101110 .
b101110 <
b10001 !
b10001 /
b10001 1
b101111 >
1&
1)
#4537000
0'
#4540000
b101000 5
0&
0)
#4545000
b101000 6
1&
1)
#4550000
0&
0)
#4554000
1'
b101111 ,
#4555000
b1111 #
b1111 -
b1111 2
b110001 =
b101111 "
b101111 .
b101111 <
b101000 7
1&
1)
#4560000
b101001 5
0&
0)
#4564000
0'
#4565000
b10000 !
b10000 /
b10000 1
b110000 >
b101001 6
1&
1)
#4570000
0&
0)
#4575000
b101001 7
1&
1)
#4580000
0&
0)
#4581000
1'
b110000 ,
#4585000
b110000 "
b110000 .
b110000 <
b1110 #
b1110 -
b1110 2
b110010 =
b1111 !
b1111 /
b1111 1
b110001 >
1&
1)
#4590000
b101011 5
0&
0)
#4591000
0'
#4595000
b101011 6
1&
1)
#4600000
0&
0)
#4605000
b101011 7
1&
1)
#4608000
1'
b110001 ,
#4610000
0&
0)
#4615000
b1101 #
b1101 -
b1101 2
b110011 =
b110001 "
b110001 .
b110001 <
b1110 !
b1110 /
b1110 1
b110010 >
1&
1)
#4618000
0'
#4620000
b101010 5
0&
0)
#4625000
b101010 6
1&
1)
#4630000
0&
0)
#4635000
b1100 #
b1100 -
b1100 2
b110100 =
b110010 "
b110010 .
b110010 <
b101010 7
1&
1)
1'
b110010 ,
#4640000
b101110 5
0&
0)
#4645000
b1101 !
b1101 /
b1101 1
b110011 >
b101110 6
1&
1)
0'
#4650000
0&
0)
#4655000
b101110 7
1&
1)
#4660000
0&
0)
#4662000
1'
b110011 ,
#4665000
b110011 "
b110011 .
b110011 <
b1011 #
b1011 -
b1011 2
b110101 =
b1100 !
b1100 /
b1100 1
b110100 >
1&
1)
#4670000
b101111 5
0&
0)
#4672000
0'
#4675000
b101111 6
1&
1)
#4680000
0&
0)
#4685000
b101111 7
1&
1)
#4689000
1'
b110100 ,
#4690000
0&
0)
#4695000
b1010 #
b1010 -
b1010 2
b110110 =
b110100 "
b110100 .
b110100 <
b1011 !
b1011 /
b1011 1
b110101 >
1&
1)
#4699000
0'
#4700000
b101101 5
0&
0)
#4705000
b101101 6
1&
1)
#4710000
0&
0)
#4715000
b101101 7
1&
1)
#4716000
1'
b110101 ,
#4720000
0&
0)
#4725000
b110101 "
b110101 .
b110101 <
b1001 #
b1001 -
b1001 2
b110111 =
b1010 !
b1010 /
b1010 1
b110110 >
1&
1)
#4726000
0'
#4730000
b101100 5
0&
0)
#4735000
b101100 6
1&
1)
#4740000
0&
0)
#4743000
1'
b110110 ,
#4745000
b110110 "
b110110 .
b110110 <
b1000 #
b1000 -
b1000 2
b111000 =
b101100 7
1&
1)
#4750000
b100100 5
0&
0)
#4753000
0'
#4755000
b1001 !
b1001 /
b1001 1
b110111 >
b100100 6
1&
1)
#4760000
0&
0)
#4765000
b100100 7
1&
1)
#4770000
0&
0)
1'
b110111 ,
#4775000
b111 #
b111 -
b111 2
b111001 =
b110111 "
b110111 .
b110111 <
b1000 !
b1000 /
b1000 1
b111000 >
1&
1)
#4780000
b100101 5
0&
0)
0'
#4785000
b100101 6
1&
1)
#4790000
0&
0)
#4795000
b100101 7
1&
1)
#4797000
1'
b111000 ,
#4800000
0&
0)
#4805000
b111000 "
b111000 .
b111000 <
b110 #
b110 -
b110 2
b111010 =
b111 !
b111 /
b111 1
b111001 >
1&
1)
#4807000
0'
#4810000
b100111 5
0&
0)
#4815000
b100111 6
1&
1)
#4820000
0&
0)
#4824000
1'
b111001 ,
#4825000
b111001 "
b111001 .
b111001 <
b101 #
b101 -
b101 2
b111011 =
b100111 7
1&
1)
#4830000
b100110 5
0&
0)
#4834000
0'
#4835000
b110 !
b110 /
b110 1
b111010 >
b100110 6
1&
1)
#4840000
0&
0)
#4845000
b100110 7
1&
1)
#4850000
0&
0)
#4851000
1'
b111010 ,
#4855000
b100 #
b100 -
b100 2
b111100 =
b111010 "
b111010 .
b111010 <
b101 !
b101 /
b101 1
b111011 >
1&
1)
#4860000
b100010 5
0&
0)
#4861000
0'
#4865000
b100010 6
1&
1)
#4870000
0&
0)
#4875000
b100010 7
1&
1)
#4878000
1'
b111011 ,
#4880000
0&
0)
#4885000
b111011 "
b111011 .
b111011 <
b11 #
b11 -
b11 2
b111101 =
b100 !
b100 /
b100 1
b111100 >
1&
1)
#4888000
0'
#4890000
b100011 5
0&
0)
#4895000
b100011 6
1&
1)
#4900000
0&
0)
#4905000
b111100 "
b111100 .
b111100 <
b10 #
b10 -
b10 2
b111110 =
b100011 7
1&
1)
1'
b111100 ,
#4910000
b100001 5
0&
0)
#4915000
b11 !
b11 /
b11 1
b111101 >
b100001 6
1&
1)
0'
#4920000
0&
0)
#4925000
b100001 7
1&
1)
#4930000
0&
0)
#4932000
1'
b111101 ,
#4935000
b1 #
b1 -
b1 2
b111111 =
b111101 "
b111101 .
b111101 <
b10 !
b10 /
b10 1
b111110 >
1&
1)
#4940000
b100000 5
0&
0)
#4942000
0'
#4945000
b100000 6
1&
1)
#4950000
0&
0)
#4955000
b100000 7
1&
1)
#4959000
1'
b111110 ,
#4960000
0&
0)
#4965000
1%
14
b111110 "
b111110 .
b111110 <
b0 #
b0 -
b0 2
b0 =
b1 !
b1 /
b1 1
b111111 >
1&
1)
#4969000
0'
#4970000
b0 5
0&
0)
#4975000
b0 6
1&
1)
#4980000
0&
0)
#4985000
b0 7
1&
1)
#4986000
b111111 ,
#4990000
0&
0)
#4995000
b0 !
b0 /
b0 1
b0 >
1&
1)
#5000000
0&
0)
#5005000
1&
1)
#5010000
0&
0)
#5015000
1&
1)
#5020000
0&
0)
#5025000
1&
1)
#5030000
0&
0)
#5035000
1&
1)
#5040000
0&
0)
#5045000
1&
1)
#5050000
0&
0)
#5055000
1&
1)
#5060000
0&
0)
#5065000
1&
1)
#5070000
0&
0)
#5075000
1&
1)
#5080000
0&
0)
#5085000
1&
1)
#5090000
0&
0)
#5095000
1&
1)
#5100000
0&
0)
#5105000
1&
1)
#5110000
0&
0)
#5115000
1&
1)
#5120000
0&
0)
#5125000
1&
1)
#5130000
0&
0)
#5135000
1&
1)
#5140000
0&
0)
#5145000
1&
1)
#5150000
0&
0)
#5155000
1&
1)
#5160000
0&
0)
#5165000
1&
1)
#5170000
0&
0)
#5175000
1&
1)
#5180000
0&
0)
#5185000
1&
1)
#5190000
0&
0)
#5195000
1&
1)
#5200000
0&
0)
#5205000
1&
1)
#5210000
0&
0)
#5215000
1&
1)
#5220000
0&
0)
#5225000
1&
1)
#5230000
0&
0)
#5235000
1&
1)
#5240000
0&
0)
#5245000
1&
1)
#5250000
0&
0)
#5255000
1&
1)
#5260000
0&
0)
#5265000
1&
1)
#5270000
0&
0)
#5275000
1&
1)
#5280000
0&
0)
#5285000
1&
1)
#5290000
0&
0)
#5295000
1&
1)
#5300000
0&
0)
#5305000
1&
1)
#5310000
0&
0)
#5315000
1&
1)
#5320000
0&
0)
#5325000
1&
1)
#5330000
0&
0)
#5335000
1&
1)
#5340000
0&
0)
#5345000
1&
1)
#5350000
0&
0)
#5355000
1&
1)
#5360000
0&
0)
#5365000
1&
1)
#5370000
0&
0)
#5375000
1&
1)
#5380000
0&
0)
#5385000
1&
1)
#5390000
0&
0)
#5395000
1&
1)
#5400000
0&
0)
#5405000
1&
1)
#5410000
0&
0)
#5415000
1&
1)
#5420000
0&
0)
#5425000
1&
1)
#5430000
0&
0)
#5435000
1&
1)
#5440000
0&
0)
#5445000
1&
1)
#5450000
0&
0)
#5455000
1&
1)
#5460000
0&
0)
#5465000
1&
1)
#5470000
0&
0)
#5475000
1&
1)
#5480000
0&
0)
#5485000
1&
1)
#5490000
0&
0)
#5495000
1&
1)
#5500000
0&
0)
#5505000
1&
1)
#5510000
0&
0)
#5515000
1&
1)
#5520000
0&
0)
#5525000
1&
1)
#5530000
0&
0)
#5535000
1&
1)
#5540000
0&
0)
#5545000
1&
1)
#5550000
0&
0)
#5555000
1&
1)
#5560000
0&
0)
#5565000
1&
1)
#5570000
0&
0)
#5575000
1&
1)
#5580000
0&
0)
#5585000
1&
1)
#5590000
0&
0)
#5595000
1&
1)
#5600000
0&
0)
#5605000
1&
1)
#5610000
0&
0)
#5615000
1&
1)
#5620000
0&
0)
#5625000
1&
1)
#5630000
0&
0)
#5635000
1&
1)
#5640000
0&
0)
#5645000
1&
1)
#5650000
0&
0)
#5655000
1&
1)
#5660000
0&
0)
#5665000
1&
1)
#5670000
0&
0)
#5675000
1&
1)
#5680000
0&
0)
#5685000
1&
1)
#5690000
0&
0)
#5695000
1&
1)
#5700000
0&
0)
#5705000
1&
1)
#5710000
0&
0)
#5715000
1&
1)
#5720000
0&
0)
#5725000
1&
1)
#5730000
0&
0)
#5735000
1&
1)
#5740000
0&
0)
#5745000
1&
1)
#5750000
0&
0)
#5755000
1&
1)
#5760000
0&
0)
#5765000
1&
1)
#5770000
0&
0)
#5775000
1&
1)
#5780000
0&
0)
#5785000
1&
1)
#5790000
0&
0)
#5795000
1&
1)
#5800000
0&
0)
#5805000
1&
1)
#5810000
0&
0)
#5815000
1&
1)
#5820000
0&
0)
#5825000
1&
1)
#5830000
0&
0)
#5835000
1&
1)
#5840000
0&
0)
#5845000
1&
1)
#5850000
0&
0)
#5855000
1&
1)
#5860000
0&
0)
#5865000
1&
1)
#5870000
0&
0)
#5875000
1&
1)
#5880000
0&
0)
#5885000
1&
1)
#5890000
0&
0)
#5895000
1&
1)
#5900000
0&
0)
#5905000
1&
1)
#5910000
0&
0)
#5915000
1&
1)
#5920000
0&
0)
#5925000
1&
1)
#5930000
0&
0)
#5935000
1&
1)
#5940000
0&
0)
#5945000
1&
1)
#5950000
0&
0)
#5955000
1&
1)
#5960000
0&
0)
#5965000
1&
1)
#5970000
0&
0)
#5975000
1&
1)
#5980000
0&
0)
#5985000
1&
1)
#5986000
b101111011 *
b101111011 0
b101111011 E
#5988000
1+
#5990000
0&
0)
#5995000
b1 !
b1 /
b1 1
b1 A
1&
1)
#5998000
0+
#6000000
0&
0)
#6005000
b1 8
1&
1)
#6010000
0&
0)
#6015000
b1 9
1&
1)
#6020000
0&
0)
#6025000
b1 :
1&
1)
#6030000
0&
0)
#6035000
b1 ;
1&
1)
#6040000
0&
0)
#6045000
0%
04
b1 #
b1 -
b1 2
b1 B
1&
1)
#6048000
b111111 *
b111111 0
b111111 E
#6050000
1+
0&
0)
#6055000
b10 !
b10 /
b10 1
b10 A
1&
1)
#6060000
0&
0)
0+
#6065000
b11 8
1&
1)
#6070000
0&
0)
#6075000
b11 9
1&
1)
#6080000
0&
0)
#6085000
b11 :
1&
1)
#6090000
0&
0)
#6095000
b11 ;
1&
1)
#6100000
0&
0)
#6105000
b10 #
b10 -
b10 2
b10 B
1&
1)
#6110000
0&
0)
b100011000 *
b100011000 0
b100011000 E
#6112000
1+
#6115000
b11 !
b11 /
b11 1
b11 A
1&
1)
#6120000
0&
0)
#6122000
0+
#6125000
b10 8
1&
1)
#6130000
0&
0)
#6135000
b10 9
1&
1)
#6140000
0&
0)
#6145000
b10 :
1&
1)
#6150000
0&
0)
#6155000
b10 ;
1&
1)
#6160000
0&
0)
#6165000
b11 #
b11 -
b11 2
b11 B
1&
1)
#6170000
0&
0)
#6172000
1'
#6175000
b10 #
b10 -
b10 2
b1 =
b101111011 "
b101111011 .
b101111011 <
1&
1)
#6180000
b1 5
0&
0)
#6182000
0'
#6185000
b1 6
1&
1)
#6190000
0&
0)
#6195000
b1 7
1&
1)
#6200000
0&
0)
#6205000
b10 !
b10 /
b10 1
b1 >
1&
1)
#6210000
0&
0)
#6215000
1&
1)
#6220000
0&
0)
#6225000
1&
1)
#6230000
0&
0)
#6234000
1'
#6235000
b1 #
b1 -
b1 2
b10 =
b111111 "
b111111 .
b111111 <
1&
1)
#6240000
b11 5
0&
0)
#6244000
0'
#6245000
b11 6
1&
1)
#6250000
0&
0)
#6255000
b11 7
1&
1)
#6260000
0&
0)
#6265000
b1 !
b1 /
b1 1
b10 >
1&
1)
#6270000
0&
0)
#6275000
1&
1)
#6280000
0&
0)
#6285000
1&
1)
#6290000
0&
0)
#6295000
1&
1)
#6296000
1'
#6300000
0&
0)
#6305000
1%
14
b100011000 "
b100011000 .
b100011000 <
b0 #
b0 -
b0 2
b11 =
1&
1)
#6306000
0'
#6310000
b10 5
0&
0)
#6315000
b10 6
1&
1)
#6320000
0&
0)
#6325000
b10 7
1&
1)
#6330000
0&
0)
#6335000
b0 !
b0 /
b0 1
b11 >
1&
1)
#6340000
0&
0)
#6345000
1&
1)
#6350000
0&
0)
#6355000
1&
1)
#6360000
0&
0)
#6365000
1&
1)
#6370000
0&
0)
#6375000
1&
1)
#6380000
0&
0)
#6385000
1&
1)
#6390000
0&
0)
#6395000
1&
1)
#6400000
0&
0)
#6405000
1&
1)
#6410000
0&
0)
#6415000
1&
1)
#6420000
0&
0)
#6425000
1&
1)
#6430000
0&
0)
#6435000
1&
1)
#6440000
0&
0)
#6445000
1&
1)
#6450000
0&
0)
#6455000
1&
1)
#6460000
0&
0)
#6465000
1&
1)
#6470000
0&
0)
#6475000
1&
1)
#6480000
0&
0)
#6485000
1&
1)
#6490000
0&
0)
#6495000
1&
1)
#6500000
0&
0)
#6505000
1&
1)
#6510000
0&
0)
#6515000
1&
1)
#6520000
0&
0)
#6525000
1&
1)
#6530000
0&
0)
#6535000
1&
1)
#6540000
0&
0)
#6545000
1&
1)
#6550000
0&
0)
#6555000
1&
1)
#6560000
0&
0)
#6565000
1&
1)
#6570000
0&
0)
#6575000
1&
1)
#6580000
0&
0)
#6585000
1&
1)
#6590000
0&
0)
#6595000
1&
1)
#6600000
0&
0)
#6605000
1&
1)
#6610000
0&
0)
#6615000
1&
1)
#6620000
0&
0)
#6625000
1&
1)
#6630000
0&
0)
#6635000
1&
1)
#6640000
0&
0)
#6645000
1&
1)
#6650000
0&
0)
#6655000
1&
1)
#6660000
0&
0)
#6665000
1&
1)
#6670000
0&
0)
#6675000
1&
1)
#6680000
0&
0)
#6685000
1&
1)
#6690000
0&
0)
#6695000
1&
1)
#6700000
0&
0)
#6705000
1&
1)
#6710000
0&
0)
#6715000
1&
1)
#6720000
0&
0)
#6725000
1&
1)
#6730000
0&
0)
#6735000
1&
1)
#6740000
0&
0)
#6745000
1&
1)
#6750000
0&
0)
#6755000
1&
1)
#6760000
0&
0)
#6765000
1&
1)
#6770000
0&
0)
#6775000
1&
1)
#6780000
0&
0)
#6785000
1&
1)
#6790000
0&
0)
#6795000
1&
1)
#6800000
0&
0)
#6805000
1&
1)
#6810000
0&
0)
#6815000
1&
1)
#6820000
0&
0)
#6825000
1&
1)
#6830000
0&
0)
#6835000
1&
1)
#6840000
0&
0)
#6845000
1&
1)
#6850000
0&
0)
#6855000
1&
1)
#6860000
0&
0)
#6865000
1&
1)
#6870000
0&
0)
#6875000
1&
1)
#6880000
0&
0)
#6885000
1&
1)
#6890000
0&
0)
#6895000
1&
1)
#6900000
0&
0)
#6905000
1&
1)
#6910000
0&
0)
#6915000
1&
1)
#6920000
0&
0)
#6925000
1&
1)
#6930000
0&
0)
#6935000
1&
1)
#6940000
0&
0)
#6945000
1&
1)
#6950000
0&
0)
#6955000
1&
1)
#6960000
0&
0)
#6965000
1&
1)
#6970000
0&
0)
#6975000
1&
1)
#6980000
0&
0)
#6985000
1&
1)
#6990000
0&
0)
#6995000
1&
1)
#7000000
0&
0)
#7005000
1&
1)
#7010000
0&
0)
#7015000
1&
1)
#7020000
0&
0)
#7025000
1&
1)
#7030000
0&
0)
#7035000
1&
1)
#7040000
0&
0)
#7045000
1&
1)
#7050000
0&
0)
#7055000
1&
1)
#7060000
0&
0)
#7065000
1&
1)
#7070000
0&
0)
#7075000
1&
1)
#7080000
0&
0)
#7085000
1&
1)
#7090000
0&
0)
#7095000
1&
1)
#7100000
0&
0)
#7105000
1&
1)
#7110000
0&
0)
#7115000
1&
1)
#7120000
0&
0)
#7125000
1&
1)
#7130000
0&
0)
#7135000
1&
1)
#7140000
0&
0)
#7145000
1&
1)
#7150000
0&
0)
#7155000
1&
1)
#7160000
0&
0)
#7165000
1&
1)
#7170000
0&
0)
#7175000
1&
1)
#7180000
0&
0)
#7185000
1&
1)
#7190000
0&
0)
#7195000
1&
1)
#7200000
0&
0)
#7205000
1&
1)
#7210000
0&
0)
#7215000
1&
1)
#7220000
0&
0)
#7225000
1&
1)
#7230000
0&
0)
#7235000
1&
1)
#7240000
0&
0)
#7245000
1&
1)
#7250000
0&
0)
#7255000
1&
1)
#7260000
0&
0)
#7265000
1&
1)
#7270000
0&
0)
#7275000
1&
1)
#7280000
0&
0)
#7285000
1&
1)
#7290000
0&
0)
#7295000
1&
1)
#7300000
0&
0)
#7305000
1&
1)
#7310000
0&
0)
#7315000
1&
1)
#7320000
0&
0)
#7325000
1&
1)
#7330000
0&
0)
#7335000
1&
1)
#7340000
0&
0)
#7345000
1&
1)
#7350000
0&
0)
#7355000
1&
1)
#7360000
0&
0)
#7365000
1&
1)
#7370000
0&
0)
#7375000
1&
1)
#7380000
0&
0)
#7385000
1&
1)
#7390000
0&
0)
#7395000
1&
1)
#7400000
0&
0)
#7405000
1&
1)
#7410000
0&
0)
#7415000
1&
1)
#7420000
0&
0)
#7425000
1&
1)
#7430000
0&
0)
#7435000
1&
1)
#7440000
0&
0)
#7445000
1&
1)
#7450000
0&
0)
#7455000
1&
1)
#7460000
0&
0)
#7465000
1&
1)
#7470000
0&
0)
#7475000
1&
1)
#7480000
0&
0)
#7485000
1&
1)
#7490000
0&
0)
#7495000
1&
1)
#7500000
0&
0)
#7505000
1&
1)
#7510000
0&
0)
#7515000
1&
1)
#7520000
0&
0)
#7525000
1&
1)
#7530000
0&
0)
#7535000
1&
1)
#7540000
0&
0)
#7545000
1&
1)
#7550000
0&
0)
#7555000
1&
1)
#7560000
0&
0)
#7565000
1&
1)
#7570000
0&
0)
#7575000
1&
1)
#7580000
0&
0)
#7585000
1&
1)
#7590000
0&
0)
#7595000
1&
1)
#7600000
0&
0)
#7605000
1&
1)
#7610000
0&
0)
#7615000
1&
1)
#7620000
0&
0)
#7625000
1&
1)
#7630000
0&
0)
#7635000
1&
1)
#7640000
0&
0)
#7645000
1&
1)
#7650000
0&
0)
#7655000
1&
1)
#7660000
0&
0)
#7665000
1&
1)
#7670000
0&
0)
#7675000
1&
1)
#7680000
0&
0)
#7685000
1&
1)
#7690000
0&
0)
#7695000
1&
1)
#7700000
0&
0)
#7705000
1&
1)
#7710000
0&
0)
#7715000
1&
1)
#7720000
0&
0)
#7725000
1&
1)
#7730000
0&
0)
#7735000
1&
1)
#7740000
0&
0)
#7745000
1&
1)
#7750000
0&
0)
#7755000
1&
1)
#7760000
0&
0)
#7765000
1&
1)
#7770000
0&
0)
#7775000
1&
1)
#7780000
0&
0)
#7785000
1&
1)
#7790000
0&
0)
#7795000
1&
1)
#7800000
0&
0)
#7805000
1&
1)
#7810000
0&
0)
#7815000
1&
1)
#7820000
0&
0)
#7825000
1&
1)
#7830000
0&
0)
#7835000
1&
1)
#7840000
0&
0)
#7845000
1&
1)
#7850000
0&
0)
#7855000
1&
1)
#7860000
0&
0)
#7865000
1&
1)
#7870000
0&
0)
#7875000
1&
1)
#7880000
0&
0)
#7885000
1&
1)
#7890000
0&
0)
#7895000
1&
1)
#7900000
0&
0)
#7905000
1&
1)
#7910000
0&
0)
#7915000
1&
1)
#7920000
0&
0)
#7925000
1&
1)
#7930000
0&
0)
#7935000
1&
1)
#7940000
0&
0)
#7945000
1&
1)
#7950000
0&
0)
#7955000
1&
1)
#7960000
0&
0)
#7965000
1&
1)
#7970000
0&
0)
#7975000
1&
1)
#7980000
0&
0)
#7985000
1&
1)
#7990000
0&
0)
#7995000
1&
1)
#8000000
0&
0)
#8005000
1&
1)
#8010000
0&
0)
#8015000
1&
1)
#8020000
0&
0)
#8025000
1&
1)
#8030000
0&
0)
#8035000
1&
1)
#8040000
0&
0)
#8045000
1&
1)
#8050000
0&
0)
#8055000
1&
1)
#8060000
0&
0)
#8065000
1&
1)
#8070000
0&
0)
#8075000
1&
1)
#8080000
0&
0)
#8085000
1&
1)
#8090000
0&
0)
#8095000
1&
1)
#8100000
0&
0)
#8105000
1&
1)
#8110000
0&
0)
#8115000
1&
1)
#8120000
0&
0)
#8125000
1&
1)
#8130000
0&
0)
#8135000
1&
1)
#8140000
0&
0)
#8145000
1&
1)
#8150000
0&
0)
#8155000
1&
1)
#8160000
0&
0)
#8165000
1&
1)
#8170000
0&
0)
#8175000
1&
1)
#8180000
0&
0)
#8185000
1&
1)
#8190000
0&
0)
#8195000
1&
1)
#8200000
0&
0)
#8205000
1&
1)
#8210000
0&
0)
#8215000
1&
1)
#8220000
0&
0)
#8225000
1&
1)
#8230000
0&
0)
#8235000
1&
1)
#8240000
0&
0)
#8245000
1&
1)
#8250000
0&
0)
#8255000
1&
1)
#8260000
0&
0)
#8265000
1&
1)
#8270000
0&
0)
#8275000
1&
1)
#8280000
0&
0)
#8285000
1&
1)
#8290000
0&
0)
#8295000
1&
1)
#8300000
0&
0)
#8305000
1&
1)
#8310000
0&
0)
#8315000
1&
1)
#8320000
0&
0)
#8325000
1&
1)
#8330000
0&
0)
#8335000
1&
1)
#8340000
0&
0)
#8345000
1&
1)
#8350000
0&
0)
#8355000
1&
1)
#8360000
0&
0)
#8365000
1&
1)
#8370000
0&
0)
#8375000
1&
1)
#8380000
0&
0)
#8385000
1&
1)
#8390000
0&
0)
#8395000
1&
1)
#8400000
0&
0)
#8405000
1&
1)
#8410000
0&
0)
#8415000
1&
1)
#8420000
0&
0)
#8425000
1&
1)
#8430000
0&
0)
#8435000
1&
1)
#8440000
0&
0)
#8445000
1&
1)
#8450000
0&
0)
#8455000
1&
1)
#8460000
0&
0)
#8465000
1&
1)
#8470000
0&
0)
#8475000
1&
1)
#8480000
0&
0)
#8485000
1&
1)
#8490000
0&
0)
#8495000
1&
1)
#8500000
0&
0)
#8505000
1&
1)
#8510000
0&
0)
#8515000
1&
1)
#8520000
0&
0)
#8525000
1&
1)
#8530000
0&
0)
#8535000
1&
1)
#8540000
0&
0)
#8545000
1&
1)
#8550000
0&
0)
#8555000
1&
1)
#8560000
0&
0)
#8565000
1&
1)
#8570000
0&
0)
#8575000
1&
1)
#8580000
0&
0)
#8585000
1&
1)
#8590000
0&
0)
#8595000
1&
1)
#8600000
0&
0)
#8605000
1&
1)
#8610000
0&
0)
#8615000
1&
1)
#8620000
0&
0)
#8625000
1&
1)
#8630000
0&
0)
#8635000
1&
1)
#8640000
0&
0)
#8645000
1&
1)
#8650000
0&
0)
#8655000
1&
1)
#8660000
0&
0)
#8665000
1&
1)
#8670000
0&
0)
#8675000
1&
1)
#8680000
0&
0)
#8685000
1&
1)
#8690000
0&
0)
#8695000
1&
1)
#8700000
0&
0)
#8705000
1&
1)
#8710000
0&
0)
#8715000
1&
1)
#8720000
0&
0)
#8725000
1&
1)
#8730000
0&
0)
#8735000
1&
1)
#8740000
0&
0)
#8745000
1&
1)
#8750000
0&
0)
#8755000
1&
1)
#8760000
0&
0)
#8765000
1&
1)
#8770000
0&
0)
#8775000
1&
1)
#8780000
0&
0)
#8785000
1&
1)
#8790000
0&
0)
#8795000
1&
1)
#8800000
0&
0)
#8805000
1&
1)
#8810000
0&
0)
#8815000
1&
1)
#8820000
0&
0)
#8825000
1&
1)
#8830000
0&
0)
#8835000
1&
1)
#8840000
0&
0)
#8845000
1&
1)
#8850000
0&
0)
#8855000
1&
1)
#8860000
0&
0)
#8865000
1&
1)
#8870000
0&
0)
#8875000
1&
1)
#8880000
0&
0)
#8885000
1&
1)
#8890000
0&
0)
#8895000
1&
1)
#8900000
0&
0)
#8905000
1&
1)
#8910000
0&
0)
#8915000
1&
1)
#8920000
0&
0)
#8925000
1&
1)
#8930000
0&
0)
#8935000
1&
1)
#8940000
0&
0)
#8945000
1&
1)
#8950000
0&
0)
#8955000
1&
1)
#8960000
0&
0)
#8965000
1&
1)
#8970000
0&
0)
#8975000
1&
1)
#8980000
0&
0)
#8985000
1&
1)
#8990000
0&
0)
#8995000
1&
1)
#9000000
0&
0)
#9005000
1&
1)
#9010000
0&
0)
#9015000
1&
1)
#9020000
0&
0)
#9025000
1&
1)
#9030000
0&
0)
#9035000
1&
1)
#9040000
0&
0)
#9045000
1&
1)
#9050000
0&
0)
#9055000
1&
1)
#9060000
0&
0)
#9065000
1&
1)
#9070000
0&
0)
#9075000
1&
1)
#9080000
0&
0)
#9085000
1&
1)
#9090000
0&
0)
#9095000
1&
1)
#9100000
0&
0)
#9105000
1&
1)
#9110000
0&
0)
#9115000
1&
1)
#9120000
0&
0)
#9125000
1&
1)
#9130000
0&
0)
#9135000
1&
1)
#9140000
0&
0)
#9145000
1&
1)
#9150000
0&
0)
#9155000
1&
1)
#9160000
0&
0)
#9165000
1&
1)
#9170000
0&
0)
#9175000
1&
1)
#9180000
0&
0)
#9185000
1&
1)
#9190000
0&
0)
#9195000
1&
1)
#9200000
0&
0)
#9205000
1&
1)
#9210000
0&
0)
#9215000
1&
1)
#9220000
0&
0)
#9225000
1&
1)
#9230000
0&
0)
#9235000
1&
1)
#9240000
0&
0)
#9245000
1&
1)
#9250000
0&
0)
#9255000
1&
1)
#9260000
0&
0)
#9265000
1&
1)
#9270000
0&
0)
#9275000
1&
1)
#9280000
0&
0)
#9285000
1&
1)
#9290000
0&
0)
#9295000
1&
1)
#9300000
0&
0)
#9305000
1&
1)
#9310000
0&
0)
#9315000
1&
1)
#9320000
0&
0)
#9325000
1&
1)
#9330000
0&
0)
#9335000
1&
1)
#9340000
0&
0)
#9345000
1&
1)
#9350000
0&
0)
#9355000
1&
1)
#9360000
0&
0)
#9365000
1&
1)
#9370000
0&
0)
#9375000
1&
1)
#9380000
0&
0)
#9385000
1&
1)
#9390000
0&
0)
#9395000
1&
1)
#9400000
0&
0)
#9405000
1&
1)
#9410000
0&
0)
#9415000
1&
1)
#9420000
0&
0)
#9425000
1&
1)
#9430000
0&
0)
#9435000
1&
1)
#9440000
0&
0)
#9445000
1&
1)
#9450000
0&
0)
#9455000
1&
1)
#9460000
0&
0)
#9465000
1&
1)
#9470000
0&
0)
#9475000
1&
1)
#9480000
0&
0)
#9485000
1&
1)
#9490000
0&
0)
#9495000
1&
1)
#9500000
0&
0)
#9505000
1&
1)
#9510000
0&
0)
#9515000
1&
1)
#9520000
0&
0)
#9525000
1&
1)
#9530000
0&
0)
#9535000
1&
1)
#9540000
0&
0)
#9545000
1&
1)
#9550000
0&
0)
#9555000
1&
1)
#9560000
0&
0)
#9565000
1&
1)
#9570000
0&
0)
#9575000
1&
1)
#9580000
0&
0)
#9585000
1&
1)
#9590000
0&
0)
#9595000
1&
1)
#9600000
0&
0)
#9605000
1&
1)
#9610000
0&
0)
#9615000
1&
1)
#9620000
0&
0)
#9625000
1&
1)
#9630000
0&
0)
#9635000
1&
1)
#9640000
0&
0)
#9645000
1&
1)
#9650000
0&
0)
#9655000
1&
1)
#9660000
0&
0)
#9665000
1&
1)
#9670000
0&
0)
#9675000
1&
1)
#9680000
0&
0)
#9685000
1&
1)
#9690000
0&
0)
#9695000
1&
1)
#9700000
0&
0)
#9705000
1&
1)
#9710000
0&
0)
#9715000
1&
1)
#9720000
0&
0)
#9725000
1&
1)
#9730000
0&
0)
#9735000
1&
1)
#9740000
0&
0)
#9745000
1&
1)
#9750000
0&
0)
#9755000
1&
1)
#9760000
0&
0)
#9765000
1&
1)
#9770000
0&
0)
#9775000
1&
1)
#9780000
0&
0)
#9785000
1&
1)
#9790000
0&
0)
#9795000
1&
1)
#9800000
0&
0)
#9805000
1&
1)
#9810000
0&
0)
#9815000
1&
1)
#9820000
0&
0)
#9825000
1&
1)
#9830000
0&
0)
#9835000
1&
1)
#9840000
0&
0)
#9845000
1&
1)
#9850000
0&
0)
#9855000
1&
1)
#9860000
0&
0)
#9865000
1&
1)
#9870000
0&
0)
#9875000
1&
1)
#9880000
0&
0)
#9885000
1&
1)
#9890000
0&
0)
#9895000
1&
1)
#9900000
0&
0)
#9905000
1&
1)
#9910000
0&
0)
#9915000
1&
1)
#9920000
0&
0)
#9925000
1&
1)
#9930000
0&
0)
#9935000
1&
1)
#9940000
0&
0)
#9945000
1&
1)
#9950000
0&
0)
#9955000
1&
1)
#9960000
0&
0)
#9965000
1&
1)
#9970000
0&
0)
#9975000
1&
1)
#9980000
0&
0)
#9985000
1&
1)
#9990000
0&
0)
#9995000
1&
1)
#10000000
0&
0)
